<svg xmlns="http://www.w3.org/2000/svg" width="24" height="24" fill="none" viewBox="0 0 24 24">
    <g fill="#fff" opacity=".9">
        <path fill-rule="evenodd" d="M6.832 7.126a.5.5 0 0 1 .042.706L3.187 11.98l3.667 3.666a.5.5 0 1 1-.708.708L1.813 12.02l4.313-4.852a.5.5 0 0 1 .706-.042zM17.168 16.374a.5.5 0 0 1-.042-.706l3.687-4.148-3.667-3.666a.5.5 0 0 1 .708-.708l4.333 4.334-4.313 4.852a.5.5 0 0 1-.706.042z" clip-rule="evenodd"/>
        <path d="M14.129 4.97a.5.5 0 1 1 .94.342l-5.13 14.095a.5.5 0 0 1-.94-.342l5.13-14.095z"/>
    </g>
</svg>
